{
    "main_package": "techberry-go/apis",
    "module_directory": "modules",
    "source_template_package": "msa-template",
    "lib_module_path": "/var/jenkins_home/go-modules",
    "ext_lib_module": "/var/jenkins_home/ext_lib",
    "tempUploadDir": true,
    "line_token": "hgSWq03t4oDr9R2leT9ObJ4ctiegicSkkYrxU8dWXF5",
    "registry_host_url": "registry.partsoto.net:5000",
    "registry_username": "regadmin",
    "registry_password": ";6<b=yp@virbo",
    "private_key": "/var/jenkins_home/id_rsa"
}