{
    "main_package": "techberry-go/apis",
    "module_directory": "modules",
    "source_template_package": "msa-template",
    "lib_module_path": "/var/jenkins_home/go-modules",
    "ext_lib_module": "/var/jenkins_home/ext_lib",
    "tempUploadDir": true,
    "line_token": "hgSWq03t4oDr9R2leT9ObJ4ctiegicSkkYrxU8dWXF5",
    "container": {
        "name": "msa-gateway",
        "image": "go-msa-gateway",
        "docker_file": "Dockerfile-go_msa_gateway",
        "compose_file": "docker-compose-msa-gateway.yml"
    },
    "binding_var": [{
            "variable": "<module_version>",
            "value": "2.1.0"
        },
        {
            "variable": "<module_title>",
            "value": "MSA Gateway"
        },
        {
            "variable": "<module_description>",
            "value": "MSA Gateway API(s)"
        },
        {
            "variable": "<module_owner>",
            "value": "wutichai@gmail.com"
        },
        {
            "variable": "<context_path>",
            "value": "/apis/msa"
        },
        {
            "variable": "<module_package>",
            "value": "techberry-go/apis"
        },
        {
            "variable": "<service_name>",
            "value": "msa"
        },
        {
            "variable": "<enable_appkey>",
            "value": "false"
        },
        {
            "variable": "<enable_license>",
            "value": "false"
        },
        {
            "variable": "<app_uuid>",
            "value": "Gj7cT8yV4g8CpXdMXW9Es8xVKFMIip2x"
        }
    ],
    "nginx": {
        "name": "nginx_msa"
    }
}