{
    "main_package": "techberry-go/apis",
    "module_directory": "modules",
    "source_template_package": "msa-template",
    "lib_module_path": "/var/jenkins_home/go-modules",
    "ext_lib_module": "/var/jenkins_home/ext_lib",
    "tempUploadDir": true,
    "line_token": "hgSWq03t4oDr9R2leT9ObJ4ctiegicSkkYrxU8dWXF5",
    "container": {
        "name": "pull-go-modules",
        "image": "pull-go-modules",
        "docker_file": "Dockerfile-go_download_vendor"
    },
    "template": {
        "repository": "gom-template/msa-template.git",
        "package": "msa-template",
        "version": "msa-plugin"
    },
    "common": {
        "repository": "gom-lib/techberry-go_common.git",
        "package": "techberry-go/common",
        "version": "msa-plugin"
    }
}